Age at enrollment etc
…
Filter for main cancers:

# A tibble: 98 × 2
   tracked_condition                         Frequency
   <chr>                                         <int>
 1 hemangiosarcoma - splenic                       176
 2 mast cell tumor - cutaneous                     157
 3 hemangiosarcoma - cardiac                       148
 4 lymphoma - multicentric                         136
 5 hemangiosarcoma - visceral                       91
 6 hemangiosarcoma - other/not specified            70
 7 unknown neoplasia                                57
 8 histiocytic sarcoma                              55
 9 soft tissue sarcoma - other/not specified        53
10 mast cell tumor - subcutaneous                   35
# ℹ 88 more rows
…
