GRLS data exploration v2
…
study_endpoints <- study_endpoints %>% 
  mutate(across(where(is.character), tolower))
unique_endpoint_dogs <- unique(study_endpoints$subject_id)
print(length(unique_endpoint_dogs))

[1] 1270

# Count overall occurrences of each condition
overall_endpoints_count <- study_endpoints %>% 
  group_by(tracked_condition) %>% 
  summarise(count = n())%>%
  arrange(desc(count))
overall_endpoints_count

# A tibble: 183 × 2
   tracked_condition                         count
   <chr>                                     <int>
 1 hemangiosarcoma - splenic                   152
 2 mast cell tumor - cutaneous                 147
 3 hemangiosarcoma - cardiac                   126
 4 lymphoma - multicentric                     118
 5 hemangiosarcoma - visceral                   73
 6 unknown                                      64
 7 hemangiosarcoma - other/not specified        55
 8 soft tissue sarcoma - other/not specified    48
 9 histiocytic sarcoma                          45
10 unknown neoplasia                            43
# ℹ 173 more rows
…
`summarise()` has grouped output by 'subject_id'. You can override using the
`.groups` argument.

patient_count2 <- study_endpoints %>% 
  dplyr::distinct(subject_id, tracked_condition) %>% 
  group_by(tracked_condition) %>% 
  summarise(count = n()) %>% 
  arrange(desc(count))
patient_count2

# A tibble: 183 × 2
   tracked_condition                         count
   <chr>                                     <int>
 1 hemangiosarcoma - splenic                   152
 2 hemangiosarcoma - cardiac                   124
 3 lymphoma - multicentric                     117
 4 mast cell tumor - cutaneous                 114
 5 hemangiosarcoma - visceral                   73
 6 unknown                                      64
 7 hemangiosarcoma - other/not specified        54
 8 histiocytic sarcoma                          44
 9 soft tissue sarcoma - other/not specified    43
10 unknown neoplasia                            42
# ℹ 173 more rows

#average number of co-morbidities at death
conditions_per_patient_count <-study_endpoints %>% 
  group_by(subject_id) %>% 
  summarise(count = n_distinct(tracked_condition)) %>%
  arrange(desc(count))
conditions_per_patient_count

# A tibble: 1,270 × 2
   subject_id count
   <chr>      <int>
 1 094-000118     4
 2 094-006381     4
 3 094-006594     4
 4 094-024532     4
 5 094-025458     4
 6 094-032095     4
 7 094-000399     3
 8 094-002750     3
 9 094-003019     3
10 094-003644     3
# ℹ 1,260 more rows
…
Physical exam

Initially check if there are exam records (>=1) for all patients and how many for each patient

print(length(unique(physical_exam$subject_id)))

[1] 3044

#yes, at least one record for each patient

physical_exam %>%
  group_by(subject_id)%>%
  summarise(row_count = n())

# A tibble: 3,044 × 2
   subject_id row_count
   <chr>          <int>
 1 094-000019        11
 2 094-000020        10
 3 094-000026         6
 4 094-000035        10
 5 094-000043        10
 6 094-000054         8
 7 094-000055         8
 8 094-000056        10
 9 094-000057        12
10 094-000063         4
# ℹ 3,034 more rows
…
`summarise()` has grouped output by 'key'. You can override using the `.groups`
argument.

missing_value_physical <- missing_values_physical%>% mutate(Proportion = num.missing / nrow(physical_exam) * 100)
missing_value_physical

# A tibble: 30 × 3
# Groups:   key [30]
   key                                 num.missing Proportion
   <chr>                                     <int>      <dbl>
 1 overhydrated_percent                      22709      100  
 2 dehydrated_percent                        22697       99.9
 3 general_appearance_abnormal_specify       22677       99.9
 4 urination_abnormal_specify                22569       99.4
 5 feces_abnormal_specify                    22383       98.6
 6 body_fat_index                            17594       77.5
 7 general_appearance                        17588       77.4
 8 respiratory_rate                          11662       51.4
 9 purina_body_condition_score                8501       37.4
10 height                                     7379       32.5
# ℹ 20 more rows
…
Do all dogs have a record and how many records:

print(length(unique(house_details$subject_id)))

[1] 3044

#yes, at least one record for each patient

house_details %>%
  group_by(subject_id)%>%
  summarise(row_count = n())

# A tibble: 3,044 × 2
   subject_id row_count
   <chr>          <int>
 1 094-000019        12
 2 094-000020        10
 3 094-000026         9
 4 094-000035         9
 5 094-000043        10
 6 094-000054         9
 7 094-000055         9
 8 094-000056        10
 9 094-000057        11
10 094-000063         4
# ℹ 3,034 more rows
…
`summarise()` has grouped output by 'key'. You can override using the `.groups`
argument.

missing_value_house <- missing_values_house%>% mutate(Proportion = num.missing / nrow(house_details) * 100)
missing_value_house

# A tibble: 50 × 3
# Groups:   key [50]
   key                              num.missing Proportion
   <chr>                                  <int>      <dbl>
 1 sec_pipes_other_specify                23329      100. 
 2 cooking_fuel_primary_other             23322       99.9
 3 sec_water_source_other                 23252       99.6
 4 water_source_other                     23117       99.0
 5 pipes_other_specify                    23106       99.0
 6 cooking_fuel_secondary_other           23037       98.7
 7 heating_fuel_secondary_other           22970       98.4
 8 sec_heating_fuel_secondary_other       22950       98.3
 9 sec_cooking_fuel_secondary_other       22886       98.1
10 heating_fuel_primary_other             22838       97.8
# ℹ 40 more rows
…
