GRLS neoplasia overview
…
tier of confidence of diagnosis (‘tier_of_confidence’)

is this tracked condition the cause of death (‘is_cause_of_death’)

is the cause of death a recurrence (‘is_recurrence’)

There are 958 dogs in this dataset, I think of these 690 of these have confirmed death (remaining maybe are un-enrolled/inactive)

# number of different outcomes and what most common
end_points %>% group_by(tracked_condition) %>%
  summarise(Frequency = n()
  ) %>% arrange(desc(Frequency))

# A tibble: 157 × 2
   tracked_condition                         Frequency
   <chr>                                         <int>
 1 Mast cell tumor - cutaneous                     129
 2 Hemangiosarcoma - splenic                       109
 3 Hemangiosarcoma - cardiac                       101
 4 Lymphoma - multicentric                          92
 5 Hemangiosarcoma - visceral                       48
 6 Soft tissue sarcoma - other/not specified        40
 7 Histiocytic sarcoma                              39
 8 Hemangiosarcoma - other/not specified            30
 9 Mast cell tumor - subcutaneous                   25
10 Unknown                                          25
# ℹ 147 more rows
…
958 dogs in the endpoints database - of these 526 have neoplasia as cause of death =54%

Dogs with a neoplasia diagnosis at death

Split the 812 dogs that had a neoplasia diagnosis at death by what type of neoplasia was diagnosed:

#sort out into types of neoplasia - lymphomas, HSAs, mast cells, sarcomas etc.
neoplasia_at_death %>% group_by(tracked_condition) %>%
  summarise(Frequency = n()
  ) %>% arrange(desc(Frequency))

# A tibble: 87 × 2
   tracked_condition                         Frequency
   <chr>                                         <int>
 1 mast cell tumor - cutaneous                     129
 2 hemangiosarcoma - splenic                       109
 3 hemangiosarcoma - cardiac                       101
 4 lymphoma - multicentric                          92
 5 hemangiosarcoma - visceral                       48
 6 soft tissue sarcoma - other/not specified        40
 7 histiocytic sarcoma                              39
 8 hemangiosarcoma - other/not specified            30
 9 mast cell tumor - subcutaneous                   25
10 unknown neoplasia                                24
# ℹ 77 more rows
…
nrow(melanoma)

[1] 29

Dogs that died due to neoplasia

526 dogs that died due to their neoplasia

#sort out into types of neoplasia - lymphomas, HSAs, mast cells, sarcomas etc.
neoplasia_death %>% group_by(tracked_condition) %>%
  summarise(Frequency = n()
  ) %>% arrange(desc(Frequency))

# A tibble: 65 × 2
   tracked_condition                     Frequency
   <chr>                                     <int>
 1 hemangiosarcoma - splenic                    92
 2 hemangiosarcoma - cardiac                    88
 3 lymphoma - multicentric                      57
 4 hemangiosarcoma - visceral                   43
 5 histiocytic sarcoma                          33
 6 hemangiosarcoma - other/not specified        24
 7 unknown neoplasia                            19
 8 lymphoma - gastrointestinal                  12
 9 brain tumor                                  10
10 leukemia                                     10
# ℹ 55 more rows
…
medication_name - missing 39%

medication_name_specify - missing 51.6%

Frequency and dose also reasonably low proportion missing also

Most common medications administered:

#which medications administered most frequently
freq_meds <- medications %>% group_by(medication_ingredients)%>%
    summarise(Frequency = n()) %>% 
  arrange(desc(Frequency))
freq_meds

# A tibble: 771 × 2
   medication_ingredients       Frequency
   <chr>                            <int>
 1 ivermectin, pyrantel pamoate      4084
 2 afoxolaner                        1727
 3 lufenuron, milbemycin oxime       1603
 4 carprofen                         1597
 5 metronidazole                     1337
 6 ivermectin                        1242
 7 oclacitinib                       1128
 8 milbemycin oxime                  1050
 9 fluralaner                         951
10 cefpodoxime proxetil               927
# ℹ 761 more rows

#number of medication events per dog
meds_per_dog <- medications%>%group_by(subject_id) %>%
  summarise(medication_administrations = sum(any_medications))%>%
  arrange(desc(medication_administrations))
meds_per_dog

# A tibble: 2,881 × 2
   subject_id medication_administrations
   <chr>                           <dbl>
 1 094-000035                        116
 2 094-003644                        107
 3 094-002389                         94
 4 094-003149                         86
 5 094-008046                         78
 6 094-025967                         78
 7 094-000625                         77
 8 094-013089                         77
 9 094-015508                         75
10 094-016741                         75
# ℹ 2,871 more rows
…
Missing a lot of vaccine type and manufacturer data and even if vaccinated ever (‘vaccine_ever’).

Vaccine_ever doesnt look correct - theres lots of rows with a vaccine listed in type but a NA for vaccine ever?

Need to group more broadly into vaccine types eg. rabies, KC, DAPPi, lepto or core/non-core

#which vaccinations administered most frequently
freq_vaccs <- vaccinations %>% group_by(type)%>%
    summarise(Frequency = n()) %>% 
  arrange(desc(Frequency))
freq_vaccs

# A tibble: 53 × 2
   type                                                                Frequency
   <chr>                                                                   <int>
 1 <NA>                                                                    31862
 2 leptospirosis 4 (canicola, grippotyphosa, icterohaemorrhagiae, pom…      7450
 3 rabies 3 year                                                            6539
 4 bordetella bronchiseptica oral                                           4312
 5 borelia burgdorferi                                                      3476
 6 canine influenza                                                         3180
 7 canine distemper, adenovirus type -2, parainfluenza, parvovirus          2703
 8 distemper, adenovirus type -2, parainfluenza, parvovirus                 2661
 9 bordetella bronchiseptica and parainfluenza in                           2362
10 bordetella bronchiseptica in                                             2254
# ℹ 43 more rows

### this bit doesnt work currently as need to edit vaccine ever
#number of medication events per dog
vaccs_per_dog <- vaccinations%>%group_by(subject_id) %>%
  summarise(vacc_administrations = sum(vaccine_ever))%>%
  arrange(desc(vacc_administrations))
vaccs_per_dog

# A tibble: 3,044 × 2
   subject_id vacc_administrations
   <chr>                     <dbl>
 1 094-024517                    2
 2 094-000259                    1
 3 094-002550                    1
 4 094-003192                    1
 5 094-004963                    1
 6 094-005292                    1
 7 094-012186                    1
 8 094-012972                    1
 9 094-013640                    1
10 094-015987                    1
# ℹ 3,034 more rows
…
153 dogs have hormone admin hx - this could represent significant proportion of those who are entire in our dataset (=219)

Lots of missing data for product administered (92% missing) - need to check if there’s not just only one main hormone therapy administered (seems to have lots of misspellings of miberone/milberone/milberon etc. in the records that do have product admin)

#number of medication events per dog
hormones_per_dog <- repro_hx_hormones%>%
  group_by(subject_id) %>%
  summarise(hormone_admin = n())%>%
  arrange(desc(hormone_admin))
hormones_per_dog

# A tibble: 153 × 2
   subject_id hormone_admin
   <chr>              <int>
 1 094-024991             5
 2 094-000269             2
 3 094-023159             2
 4 094-024799             2
 5 094-000020             1
 6 094-000184             1
 7 094-000243             1
 8 094-000284             1
 9 094-000287             1
10 094-000340             1
# ℹ 143 more rows
…
# A tibble: 1 × 4
   mean median   Min   Max
  <dbl>  <dbl> <int> <int>
1  1.33      1     1     6

Few, 11.

What are the major poisons?

substance <- poisons %>% group_by(substance) %>%
  summarise(type= n()) %>% arrange(desc(type))
substance

# A tibble: 309 × 2
   substance                    type
   <chr>                       <int>
 1 unknown                        41
 2 rodent poison                  40
 3 chocolate                      34
 4 wild mushroom - unspecified    29
 5 insect poison                  20
 6 grapes                         18
 7 plastic                        17
 8 raisins                        15
 9 rocks                          15
10 clothing - sock                12
# ℹ 299 more rows
…
A dose/level for each environmental variable e.g LMH exposure level or >1 exposure etc

First need to check if many dogs have more than 1 exposure recorded for each of the different enviro exposures

#summary stats of # each exposures for each dog

subject_counts <-environment_exposures %>% 
  group_by(subject_id) %>%
  summarise(one_count = sum(c_across(use_aerosol:use_incense_or_candles) == 1, na.rm = TRUE))

environment_exposures %>%
  group_by(subject_id) %>%
  summarise(across(starts_with("col"), ~sum(. == 1, na.rm = TRUE), .names = "count_{.col}"))

# A tibble: 3,044 × 1
   subject_id
   <chr>     
 1 094-000019
 2 094-000020
 3 094-000026
 4 094-000035
 5 094-000043
 6 094-000054
 7 094-000055
 8 094-000056
 9 094-000057
10 094-000063
# ℹ 3,034 more rows
…
  # Now:
  data %>% select(all_of(enviro_vars))

See <https://tidyselect.r-lib.org/reference/faq-external-vector.html>.

exposure_by_dog <- exposure_by_dog %>% select(!(count_year_in_study:count_to_date))
exposure_by_dog

# A tibble: 3,044 × 11
   subject_id count_use_aerosol count_use_air_cleaner count_use_hepa_filter
   <chr>                  <int>                 <int>                 <int>
 1 094-000019                22                    19                    21
 2 094-000020                20                    19                    20
 3 094-000026                16                     3                    16
 4 094-000035                 0                     9                     8
 5 094-000043                 9                    14                    18
 6 094-000054                11                     0                     0
 7 094-000055                12                     0                     0
 8 094-000056                 6                     0                    11
 9 094-000057                16                     2                     4
10 094-000063                 4                     8                     8
# ℹ 3,034 more rows
# ℹ 7 more variables: count_use_moth_balls <int>,
#   count_use_incense_or_candles <int>, count_smoke_exposure <int>,
#   count_poison_clinic_visit <int>, count_any_treated_weeds <int>,
#   count_any_treated_insects <int>, count_any_treated_fertilizer <int>
…
`summarise()` has grouped output by 'key'. You can override using the `.groups`
argument.

missing_value_enviro_sleep <- missing.values_enviro_sleep %>% mutate(Proportion = num.missing / nrow(enviro_sleep) * 100)
missing_value_enviro_sleep

# A tibble: 22 × 3
# Groups:   key [22]
   key                        num.missing Proportion
   <chr>                            <int>      <dbl>
 1 dog_house_bedding_specify        43479      100. 
 2 dog_house_material_specify       43469      100. 
 3 dog_house_bedding                43462       99.9
 4 dog_house_material               43401       99.8
 5 dog_bed_filling_specify          43347       99.7
 6 furniture_finish_specify         43346       99.7
 7 natural_surface_specify          43333       99.7
 8 crate_material_specify           43240       99.4
 9 natural_surface                  43065       99.0
10 dog_bed_foam                     43013       98.9
# ℹ 12 more rows
…
