HSA cohort data check and descriptive statistics
…
Datachecks:

table(HSA$had_HSA)

   0    1 
2554  490 

df_types <- HSA %>%
  summarise(across(everything(), ~ class(.x)[1])) %>%
  pivot_longer(cols = everything(), names_to = "Column", values_to = "Data_Type")

print(df_types)

# A tibble: 440 × 2
   Column                               Data_Type
   <chr>                                <chr>    
 1 subject_id                           character
 2 MDI_quintile                         integer  
 3 MDI.rate                             numeric  
 4 area_type_mode_5yrs_prior            character
 5 house_type_mode_5yrs_prior           character
 6 water_source_mode_5yrs_prior         character
 7 pipes_metal_any_mode_5yrs_prior      integer  
 8 pipes_plastic_any_mode_5yrs_prior    integer  
 9 heating_fuel_primary_mode_5yrs_prior character
10 cooking_fuel_primary_mode_5yrs_prior character
# ℹ 430 more rows
…
